Project 1: Exploratory Data Analysis
…
edu %>% na.omit %>% select_if(is.numeric) %>% count(dollars)

## # A tibble: 49 x 2
##    dollars     n
##      <dbl> <int>
##  1    2.99     1
##  2    3.2      1
##  3    3.32     1
##  4    3.33     1
##  5    3.65     1
##  6    3.68     1
##  7    3.71     1
##  8    3.73     1
##  9    3.74     1
## 10    4.01     1
## # … with 39 more rows

edu %>% na.omit %>% select_if(is.numeric) %>% count(percent)

## # A tibble: 35 x 2
##    percent     n
##      <dbl> <int>
##  1       4     1
##  2       5     3
##  3       6     2
##  4       8     1
##  5       9     2
##  6      10     3
##  7      11     1
##  8      12     4
##  9      13     1
## 10      14     1
## # … with 25 more rows

edu %>% na.omit %>% select_if(is.numeric) %>% count(SATM)

## # A tibble: 38 x 2
##     SATM     n
##    <dbl> <int>
##  1   437     1
##  2   440     1
##  3   443     1
##  4   459     1
##  5   461     2
##  6   463     2
##  7   466     2
##  8   470     3
##  9   473     2
## 10   476     1
## # … with 28 more rows

edu %>% na.omit %>% select_if(is.numeric) %>% count(SATV)

## # A tibble: 41 x 2
##     SATV     n
##    <dbl> <int>
##  1   397     1
##  2   401     2
##  3   404     1
##  4   408     1
##  5   412     1
##  6   413     1
##  7   418     2
##  8   419     1
##  9   420     1
## 10   422     1
## # … with 31 more rows

edu %>% na.omit %>% select_if(is.numeric) %>% count(pop)

## # A tibble: 49 x 2
##      pop     n
##    <dbl> <int>
##  1   454     1
##  2   550     1
##  3   563     1
##  4   639     1
##  5   666     1
##  6   696     1
##  7   799     1
##  8  1003     1
##  9  1007     1
## 10  1108     1
## # … with 39 more rows

edu %>% na.omit %>% select_if(is.numeric) %>% count(pvi_amount)

## # A tibble: 28 x 2
##    pvi_amount     n
##         <dbl> <int>
##  1          0     1
##  2          1     5
##  3          2     2
##  4          5     3
##  5          6     1
##  6          7     2
##  7          9     2
##  8         12     2
##  9         13     2
## 10         14     1
## # … with 18 more rows
…
edu %>% group_by(region) %>% na.omit %>% select_if(is.numeric) %>% 
    count(pay)

## # A tibble: 42 x 3
## # Groups:   region [9]
##    region   pay     n
##    <chr>  <dbl> <int>
##  1 ENC       32     2
##  2 ENC       33     1
##  3 ENC       34     1
##  4 ENC       38     1
##  5 ESC       24     1
##  6 ESC       27     1
##  7 ESC       28     1
##  8 ESC       29     1
##  9 MA        36     1
## 10 MA        38     1
## # … with 32 more rows

edu %>% group_by(region) %>% na.omit %>% select_if(is.numeric) %>% 
    count(dollars)

## # A tibble: 49 x 3
## # Groups:   region [9]
##    region dollars     n
##    <chr>    <dbl> <int>
##  1 ENC       5.05     1
##  2 ENC       5.06     1
##  3 ENC       5.26     1
##  4 ENC       5.64     1
##  5 ENC       5.95     1
##  6 ESC       3.32     1
##  7 ESC       3.65     1
##  8 ESC       3.71     1
##  9 ESC       4.39     1
## 10 MA        6.53     1
## # … with 39 more rows

edu %>% group_by(region) %>% na.omit %>% select_if(is.numeric) %>% 
    count(percent)

## # A tibble: 44 x 3
## # Groups:   region [9]
##    region percent     n
##    <chr>    <dbl> <int>
##  1 ENC         11     1
##  2 ENC         12     1
##  3 ENC         16     1
##  4 ENC         22     1
##  5 ENC         54     1
##  6 ESC          4     1
##  7 ESC          8     1
##  8 ESC         10     1
##  9 ESC         12     1
## 10 MA          64     1
## # … with 34 more rows

edu %>% group_by(region) %>% na.omit %>% select_if(is.numeric) %>% 
    count(SATM)

## # A tibble: 47 x 3
## # Groups:   region [9]
##    region  SATM     n
##    <chr>  <dbl> <int>
##  1 ENC      459     1
##  2 ENC      499     1
##  3 ENC      514     1
##  4 ENC      528     1
##  5 ENC      543     1
##  6 ESC      514     1
##  7 ESC      519     1
##  8 ESC      521     1
##  9 ESC      525     1
## 10 MA       463     1
## # … with 37 more rows

edu %>% group_by(region) %>% na.omit %>% select_if(is.numeric) %>% 
    count(SATV)

## # A tibble: 48 x 3
## # Groups:   region [9]
##    region  SATV     n
##    <chr>  <dbl> <int>
##  1 ENC      408     1
##  2 ENC      450     1
##  3 ENC      454     1
##  4 ENC      466     1
##  5 ENC      476     1
##  6 ESC      470     1
##  7 ESC      473     1
##  8 ESC      477     1
##  9 ESC      483     1
## 10 MA       412     1
## # … with 38 more rows

edu %>% group_by(region) %>% na.omit %>% select_if(is.numeric) %>% 
    count(pop)

## # A tibble: 49 x 3
## # Groups:   region [9]
##    region   pop     n
##    <chr>  <dbl> <int>
##  1 ENC     4892     1
##  2 ENC     5544     1
##  3 ENC     9295     1
##  4 ENC    10847     1
##  5 ENC    11431     1
##  6 ESC     2573     1
##  7 ESC     3685     1
##  8 ESC     4041     1
##  9 ESC     4877     1
## 10 MA      7730     1
## # … with 39 more rows

edu %>% group_by(region) %>% na.omit %>% select_if(is.numeric) %>% 
    count(pvi_amount)

## # A tibble: 45 x 3
## # Groups:   region [9]
##    region pvi_amount     n
##    <chr>       <dbl> <int>
##  1 ENC             1     2
##  2 ENC             7     1
##  3 ENC            13     1
##  4 ENC            18     1
##  5 ESC            15     1
##  6 ESC            23     1
##  7 ESC            27     1
##  8 ESC            28     1
##  9 MA              1     1
## 10 MA             13     1
## # … with 35 more rows
…
edu %>% filter(region == "ESC") %>% select(state)

## # A tibble: 4 x 1
##   state      
##   <chr>      
## 1 Alabama    
## 2 Kentucky   
## 3 Mississippi
## 4 Tennessee

edu %>% select(state, dollars) %>% arrange(desc(dollars))

## # A tibble: 52 x 2
##    state                dollars
##    <chr>                  <dbl>
##  1 New Jersey              9.16
##  2 New York                8.5 
##  3 District of Columbia    8.21
##  4 <NA>                    7.91
##  5 Alaska                  7.89
##  6 Rhode Island            6.99
##  7 Pennsylvania            6.53
##  8 Massachusetts           6.35
##  9 Maryland                6.18
## 10 Delaware                6.02
## # … with 42 more rows

edu %>% select(state, dollars) %>% arrange(dollars)

## # A tibble: 52 x 2
##    state        dollars
##    <chr>          <dbl>
##  1 Utah            2.99
##  2 Idaho           3.2 
##  3 Mississippi     3.32
##  4 Arkansas        3.33
##  5 Alabama         3.65
##  6 North Dakota    3.68
##  7 Tennessee       3.71
##  8 South Dakota    3.73
##  9 Oklahoma        3.74
## 10 Louisiana       4.01
## # … with 42 more rows

edu %>% group_by(region) %>% mutate(region_salary = mean(pay))

## # A tibble: 52 x 13
## # Groups:   region [10]
##    state pvi_party pvi_amount Abbrev Code  region   pop  SATV  SATM percent
##    <chr> <chr>          <dbl> <fct>  <chr> <chr>  <dbl> <dbl> <dbl>   <dbl>
##  1 Alab… R                 27 Ala.   AL    ESC     4041   470   514       8
##  2 Alas… R                 15 Alaska AK    PAC      550   438   476      42
##  3 Ariz… R                  9 Ariz.  AZ    MTN     3665   445   497      25
##  4 Arka… R                 24 Ark.   AR    WSC     2351   470   511       6
##  5 Cali… D                 24 Calif. CA    PAC    29760   419   484      45
##  6 Colo… D                  1 Colo.  CO    MTN     3294   456   513      28
##  7 Conn… D                 11 Conn.  CT    <NA>      NA    NA    NA      NA
##  8 Dela… D                 14 Del.   DE    SA       666   433   470      58
##  9 Flor… R                  5 Fla.   FL    SA     12938   418   466      44
## 10 Geor… R                 12 Ga.    GA    SA      6478   401   443      57
## # … with 42 more rows, and 3 more variables: dollars <dbl>, pay <dbl>,
## #   region_salary <dbl>

edu %>% na.omit %>% group_by(pvi_party) %>% mutate(party_salary = mean(pay)) %>% 
    select(pvi_party, party_salary)

## # A tibble: 49 x 2
## # Groups:   pvi_party [2]
##    pvi_party party_salary
##    <chr>            <dbl>
##  1 R                 28.4
##  2 R                 28.4
##  3 R                 28.4
##  4 R                 28.4
##  5 D                 34.2
##  6 D                 34.2
##  7 D                 34.2
##  8 R                 28.4
##  9 R                 28.4
## 10 D                 34.2
## # … with 39 more rows
…
